lab06
…
warriors %>% filter(position == 'PG') %>% select(player, salary)

## # A tibble: 2 x 2
##   player             salary
##   <chr>               <dbl>
## 1 Shaun Livingston  5782450
## 2 Stephen Curry    12112359

nba %>% filter(experience > 10 & salary <= 10000000) %>% select(player, age, team)

## # A tibble: 36 x 3
##    player              age team 
##    <chr>             <int> <chr>
##  1 Andrew Bogut         32 CLE  
##  2 Dahntay Jones        36 CLE  
##  3 Deron Williams       32 CLE  
##  4 James Jones          36 CLE  
##  5 Kyle Korver          35 CLE  
##  6 Richard Jefferson    36 CLE  
##  7 Jose Calderon        35 ATL  
##  8 Kris Humphries       31 ATL  
##  9 Mike Dunleavy        36 ATL  
## 10 Jason Terry          39 MIL  
## # ... with 26 more rows
…
