Lab 05
…
## # A tibble: 5 x 15
##   player team  position height weight   age experience college salary games
##   <chr>  <chr> <chr>     <int>  <int> <int>      <int> <chr>    <dbl> <int>
## 1 Leand PHO   SG           75    194    34         13 <NA>    4.00e6    67
## 2 Marqu PHO   PF           82    233    19          0 Univer 2.94e6    82
## 3 Ronni PHO   PG           74    190    33         11 Nichol 4.65e5    14
## 4 T.J.  PHO   SF           80    230    23          2 North  2.13e6    66
## 5 Tyler PHO   PG           70    150    21          0 Univer 9.18e5    61
## # ... with 5 more variables: minutes <int>, points <int>, points3 <int>,
## #   points2 <int>, points1 <int>

filter(dat, height > 70)

## # A tibble: 473 x 15
##    player team  position height weight   age experience college salary
##    <chr>  <chr> <chr>     <int>  <int> <int>      <int> <chr>    <dbl>
##  1 Al Ho BOS   C            82    245    30          9 Univer 2.65e7
##  2 Amir  BOS   PF           81    240    29         11 <NA>    1.20e7
##  3 Avery BOS   SG           74    180    26          6 Univer 8.27e6
##  4 Demet BOS   PG           73    201    22          0 Univer 1.45e6
##  5 Geral BOS   SF           79    205    31          9 <NA>    1.41e6
##  6 Jae C BOS   SF           78    235    26          4 Marque 6.29e6
##  7 James BOS   SG           78    215    21          2 Univer 1.83e6
##  8 Jayle BOS   SF           79    225    20          0 Univer 4.74e6
##  9 Jonas BOS   PF           82    231    29          6 <NA>    5.00e6
## 10 Jorda BOS   PF           80    235    22          1 Louisi 1.22e6
## # ... with 463 more rows, and 6 more variables: games <int>,
## #   minutes <int>, points <int>, points3 <int>, points2 <int>,
## #   points1 <int>
…
select(filter(filter(dat, team == 'GSW'), position == 'PG'), player, salary)

## # A tibble: 2 x 2
##   player             salary
##   <chr>               <dbl>
## 1 Shaun Livingston  5782450
## 2 Stephen Curry    12112359

select(filter(filter(dat, experience > 10), salary <= 10000000), player, age, team)

## # A tibble: 36 x 3
##    player              age team 
##    <chr>             <int> <chr>
##  1 Andrew Bogut         32 CLE  
##  2 Dahntay Jones        36 CLE  
##  3 Deron Williams       32 CLE  
##  4 James Jones          36 CLE  
##  5 Kyle Korver          35 CLE  
##  6 Richard Jefferson    36 CLE  
##  7 Jose Calderon        35 ATL  
##  8 Kris Humphries       31 ATL  
##  9 Mike Dunleavy        36 ATL  
## 10 Jason Terry          39 MIL  
## # ... with 26 more rows
…
## # A tibble: 1 x 1
##   `max(height)`
##           <dbl>
## 1            87

summarise(dat, sd(points3))

## # A tibble: 1 x 1
##   `sd(points3)`
##           <dbl>
## 1          55.1

summarise(group_by(dat, team), median(points3))

## # A tibble: 30 x 2
##    team  `median(points3)`
##    <chr>             <dbl>
##  1 ATL                32  
##  2 BOS                46  
##  3 BRK                36  
##  4 CHI                28.5
##  5 CHO                13  
##  6 CLE                26.5
##  7 DAL                18  
##  8 DEN                46  
##  9 DET                28  
## 10 GSW                10.5
## # ... with 20 more rows
…
## # A tibble: 5 x 2
##   team  avg_points3
##   <chr>       <dbl>
## 1 NOP          32.4
## 2 PHO          33.5
## 3 ORL          34.3
## 4 SAC          35.1
## 5 CHI          35.3

filter(filter(dat, position == 'PF'))

## # A tibble: 98 x 15
##    player team  position height weight   age experience college salary
##    <chr>  <chr> <chr>     <int>  <int> <int>      <int> <chr>    <dbl>
##  1 Amir  BOS   PF           81    240    29         11 <NA>    1.20e7
##  2 Jonas BOS   PF           82    231    29          6 <NA>    5.00e6
##  3 Jorda BOS   PF           80    235    22          1 Louisi 1.22e6
##  4 Derri CLE   PF           80    240    25          5 Univer 4.02e5
##  5 Kevin CLE   PF           82    251    28          8 Univer 2.12e7
##  6 Pasca TOR   PF           81    230    22          0 New Me 1.20e6
##  7 Patri TOR   PF           81    230    27          6 Univer 6.05e6
##  8 Serge TOR   PF           82    235    27          7 <NA>    1.23e7
##  9 Chris WAS   PF           83    200    21          1 Syracu 1.19e6
## 10 Marki WAS   PF           82    245    27          5 Univer 7.40e6
## # ... with 88 more rows, and 6 more variables: games <int>, minutes <int>,
## #   points <int>, points3 <int>, points2 <int>, points1 <int>
…
